…
The 10th element of the input group is collects the description of variables using `describe()` function. 

```r
l_input_set[10]
```

To simplify further filtering, we can use the `combine_ehs()` function. This function merges all ehs-related data and returns a tibble containing all available survey variables.

```r
combine_ehs()
```

```sh
# A tibble: 14,951 × 219
   V001_HousingCode V002_DwellingWeight D003_Region D004_TenureType        D002_DwellingType
   <chr>                          <dbl> <fct>       <fct>                  <fct>            
 1 I0011105                        1200 South West  private rented         mid terrace      
 2 I0011109                        1218 South West  private rented         detached         
 3 I0011110                         944 South West  private owner occupied detached         
 4 I0011111                        1147 South West  private rented         detached         
 5 I0011202                         714 South West  housing association    purpose built    
 6 I0011203                        1442 South West  private rented         purpose built    
 7 I0011204                        1277 South West  private owner occupied purpose built    
 8 I0011303                        1445 South West  private owner occupied detached         
 9 I0011305                         624 South West  local authority        semi detached    
10 I0011311                         954 South West  private rented         semi detached    
# ℹ 14,941 more rows
```
…
